{
  "project_info": {
    "project_number": "600471607283",
    "firebase_url": "https://quanlynhahang-ad9e5.firebaseio.com",
    "project_id": "quanlynhahang-ad9e5",
    "storage_bucket": "quanlynhahang-ad9e5.appspot.com"
  },
  "client": [
    {
      "client_info": {
        "mobilesdk_app_id": "1:600471607283:android:c3434fac361e7b6ecde486",
        "android_client_info": {
          "package_name": "com.example.quanlynhahang"
        }
      },
      "oauth_client": [
        {
          "client_id": "600471607283-bmdae24cmqkebgqu8hvninsfp7jkjmop.apps.googleusercontent.com",
          "client_type": 1,
          "android_info": {
            "package_name": "com.example.quanlynhahang",
            "certificate_hash": "bc33a3e83135f57327b6c34df94f52da7910dd66"
          }
        },
        {
          "client_id": "600471607283-qraaolt8f44114267bm70rq104lkqh9r.apps.googleusercontent.com",
          "client_type": 3
        }
      ],
      "api_key": [
        {
          "current_key": "AIzaSyDPXRXlcz0UGHj-BuUC-aVPKwhuFESZqwo"
        }
      ],
      "services": {
        "appinvite_service": {
          "other_platform_oauth_client": [
            {
              "client_id": "600471607283-qraaolt8f44114267bm70rq104lkqh9r.apps.googleusercontent.com",
              "client_type": 3
            }
          ]
        }
      }
    }
  ],
  "configuration_version": "1"
}